0,0,0,0,0,0,0,0.15,0,0,0,0,False,False,False,False,False,False,False,0,4,5750
0,0,0,0,0,0,0,0.15,0,0,0,0,False,False,False,False,False,False,False,0,6,2875
2,4,3,4,4,5,1,0.05,0.35,0.55,1,1.1,True,True,True,True,True,True,True,3,7,12625
5,0,1,4,4,5,1.5,0.15,0.1,0.9,1,1.1,True,True,True,True,True,True,True,10,8,28750
